{
	"INPUTDIR": "/eos/user/h/hkwon/Run2/Preselection/20230430wp80_ANv3/Presel/",
	"VERSION": "20230430wp80_ANv3",
	"ALL_MASSES": ["Zp-1700_CH-345", "Zp-1700_CH-595", "Zp-1700_CH-845", "Zp-2100_CH-345", "Zp-2100_CH-595", "Zp-2100_CH-845", "Zp-2500_CH-345", "Zp-2500_CH-595", "Zp-2500_CH-845", "Zp-2900_CH-345", "Zp-2900_CH-595", "Zp-2900_CH-845", "Zp-2900_CH-1095", "Zp-2900_CH-1345", "Zp-3300_CH-345", "Zp-3300_CH-595", "Zp-3300_CH-845", "Zp-3300_CH-1095", "Zp-3300_CH-1345", "Zp-3300_CH-1595",  "Zp-3700_CH-345", "Zp-3700_CH-595", "Zp-3700_CH-845", "Zp-3700_CH-1095", "Zp-3700_CH-1345", "Zp-3700_CH-1595", "Zp-3700_CH-1845", "Zp-4100_CH-345", "Zp-4100_CH-595", "Zp-4100_CH-845", "Zp-4100_CH-1095", "Zp-4100_CH-1345", "Zp-4100_CH-1595", "Zp-4100_CH-1845"]
}